<?xml version="1.0" standalone="no"?>
<!DOCTYPE svg PUBLIC "-//W3C//DTD SVG 1.1//EN" "http://www.w3.org/Graphics/SVG/1.1/DTD/svg11.dtd" >
<svg xmlns="http://www.w3.org/2000/svg" xmlns:xlink="http://www.w3.org/1999/xlink" version="1.1">
<metadata></metadata>
<defs>
<font id="futuracondensedlight" horiz-adv-x="851" >
<font-face units-per-em="2048" ascent="1638" descent="-410" />
<missing-glyph horiz-adv-x="425" />
<glyph horiz-adv-x="0" />
<glyph unicode="&#xd;" horiz-adv-x="681" />
<glyph unicode=" "  horiz-adv-x="425" />
<glyph unicode="&#x09;" horiz-adv-x="425" />
<glyph unicode="&#xa0;" horiz-adv-x="425" />
<glyph unicode="!" horiz-adv-x="702" d="M248 88q0 43 30.5 74t73.5 31t74 -31t31 -74t-31 -73.5t-74 -30.5t-73.5 30.5t-30.5 73.5zM283 387v1157h137v-1157h-137z" />
<glyph unicode="&#x22;" horiz-adv-x="632" d="M115 1544h153l-16 -463h-121zM367 1544h153l-16 -463h-121z" />
<glyph unicode="#" d="M-2 510l31 104h198l70 269h-203l31 104h197l133 537h98l-135 -537h143l133 537h97l-134 -537h197l-31 -104h-188l-70 -269h193l-31 -104h-186l-127 -510h-103l131 510h-143l-131 -510h-96l131 510h-205zM324 614h143l70 269h-142z" />
<glyph unicode="$" d="M61 1159q0 150 77 252t224 129v180h101v-176q135 -8 258 -92l-74 -109q-113 70 -211 70q-109 0 -172 -67.5t-63 -174.5q0 -84 45 -151.5t87 -96t138 -81.5q16 -10 25 -15q68 -39 109.5 -68.5t88.5 -79.5t70.5 -118.5t23.5 -157.5q0 -150 -89 -262t-236 -137v-197h-101 v193q-170 23 -278 133l88 100q127 -102 229 -102q113 0 180.5 80t67.5 190q0 51 -15.5 94.5t-34.5 73t-60 61.5t-69 48t-83 47q-162 92 -244 186.5t-82 247.5z" />
<glyph unicode="%" horiz-adv-x="1067" d="M51 1169.5q0 75.5 4 127t20.5 122t57.5 108.5t106.5 38t106.5 -38t57.5 -108.5t20.5 -122t4 -127t-4 -127t-20.5 -122t-57.5 -108.5t-106.5 -38t-106.5 38t-57.5 108.5t-20.5 122t-4 127zM137 1169.5q0 -317.5 102.5 -317.5t102.5 317.5t-102.5 317.5t-102.5 -317.5z M166 0l672 1544h65l-667 -1544h-70zM639 375q0 76 4 127t20.5 121.5t57.5 108.5t106.5 38t106.5 -38t57.5 -108.5t20.5 -121.5t4 -127t-4 -127t-20.5 -122t-57.5 -108.5t-106.5 -37.5t-106.5 37.5t-57.5 108.5t-20.5 122t-4 127zM725 374.5q0 -317.5 102.5 -317.5 t102.5 317.5t-102.5 317.5t-102.5 -317.5z" />
<glyph unicode="&#x26;" horiz-adv-x="1083" d="M147 406q0 242 228 436l-6 12q-135 248 -136 383q0 129 88.5 218t210.5 89q125 0 205 -83t80 -214q0 -82 -44 -165t-92 -134t-124 -119l-12 -10l266 -512l96 119l11 14l96 -94l-137 -158l96 -188h-150l-45 84q-115 -104 -258 -104q-168 0 -270.5 126.5t-102.5 299.5z M285 403q0 -109 63.5 -197.5t165.5 -96.5q113 4 207 92l-283 518q-154 -162 -153 -316zM371 1235q0 -103 100 -291l8 -14q201 158 201 325q0 66 -41 113t-102 47q-76 0 -121 -51t-45 -129z" />
<glyph unicode="'" horiz-adv-x="458" d="M152 1544h153l-16 -463h-121z" />
<glyph unicode="(" horiz-adv-x="614" d="M199 692q-12 444 250 873l102 -43q-250 -403 -238 -830q-12 -426 238 -829l-102 -43q-262 424 -250 872z" />
<glyph unicode=")" horiz-adv-x="614" d="M63 -137q250 403 238 829q12 426 -238 830l103 43q262 -428 250 -873q12 -448 -250 -872z" />
<glyph unicode="*" horiz-adv-x="849" d="M63 1253l27 78l293 -96v309h82v-309l295 96l26 -78l-294 -96l182 -250l-68 -49l-182 250l-180 -250l-68 49l182 250z" />
<glyph unicode="+" horiz-adv-x="909" d="M43 473v105h360v448h105v-448h360v-105h-360v-450h-105v450h-360z" />
<glyph unicode="," horiz-adv-x="425" d="M41 -283l158 476l145 -66l-205 -457z" />
<glyph unicode="-" horiz-adv-x="319" d="M0 573v162h319v-162h-319z" />
<glyph unicode="." horiz-adv-x="425" d="M109 88q0 43 30.5 74t73.5 31t73.5 -31t30.5 -74t-30.5 -73.5t-73.5 -30.5t-73.5 30.5t-30.5 73.5z" />
<glyph unicode="/" horiz-adv-x="950" d="M-37 -442l903 2080h123l-901 -2080h-125z" />
<glyph unicode="0" d="M80 772q0 98 3 166t12 172t32 175t59.5 139.5t98 104.5t141.5 36t141.5 -36t98 -104.5t59.5 -139.5t32 -175t12 -172t3 -166t-3 -165.5t-12 -172t-32 -175.5t-59.5 -139.5t-98 -104t-141.5 -35.5t-141.5 35.5t-98 104t-59.5 139.5t-32 175.5t-12 172t-3 165.5zM219 772 q0 -135 5 -225t23.5 -204t63.5 -173t115 -59t115 59t63.5 173t23.5 204t5 225t-5 225t-23.5 204t-63.5 173.5t-115 59.5t-115 -59.5t-63.5 -173.5t-23.5 -204t-5 -225z" />
<glyph unicode="1" d="M176 1409l31 135h311v-1544h-139v1409h-203z" />
<glyph unicode="2" d="M86 0l307 631q6 14 37 75.5t42 85t37 80t37 91t25.5 83t20.5 91.5t6 84q0 90 -40 151.5t-130 61.5q-178 0 -178 -279v-33h-139q0 442 309 443q156 0 236.5 -98.5t80.5 -256.5q0 -102 -39 -228t-71.5 -193.5t-104.5 -208.5l-223 -453h420v-127h-633z" />
<glyph unicode="3" d="M98 356l2 68h138v-45q4 -268 184 -268q178 0 178 333q0 166 -63.5 252t-223.5 84h-41v131h25q164 0 223.5 58.5t59.5 230.5q0 233 -164 234q-53 0 -87 -21.5t-48.5 -61.5t-19.5 -77t-5 -90h-139q-6 156 67.5 268.5t223.5 112.5q158 0 234.5 -96.5t76.5 -256.5 q0 -281 -176 -358q197 -76 196 -434q0 -440 -313 -440q-328 0 -328 376z" />
<glyph unicode="4" d="M86 416v145l414 983h135v-1005h115v-123h-115v-416h-139v416h-410zM221 539h275v469l20 309h-6z" />
<glyph unicode="5" d="M113 68l39 141q121 -90 223 -90q82 0 135 61.5t70.5 134t17.5 150.5q0 143 -59.5 242.5t-196.5 99.5q-102 0 -205 -62l96 799h459v-127h-344l-57 -479l92 8q178 0 266 -145.5t88 -337.5q0 -90 -19.5 -172t-59.5 -153.5t-112.5 -114.5t-166.5 -43q-154 0 -266 88z" />
<glyph unicode="6" d="M106 428q0 258 134 580l223 536h149l-303 -719l4 -4q72 55 154 56q80 0 137.5 -46.5t86 -120t40.5 -145t12 -145.5q0 -440 -305 -440q-94 0 -161.5 37.5t-103.5 105t-51.5 142.5t-15.5 163zM246 434q0 -53 7 -101t25.5 -102.5t58.5 -87t99 -32.5q168 0 168 329 q0 311 -180 312q-72 0 -114 -58.5t-53 -122t-11 -137.5z" />
<glyph unicode="7" d="M117 1417v127h635l-476 -1544h-151l436 1417h-444z" />
<glyph unicode="8" d="M100 410q0 369 195 444q-160 92 -160 334q0 160 77 268.5t230 108.5q147 0 221 -106.5t74 -260.5q0 -121 -35 -205t-127 -139q174 -90 175 -416q0 -88 -15.5 -164.5t-51.5 -145.5t-102.5 -108.5t-160.5 -39.5q-86 0 -150.5 37.5t-100.5 101t-52.5 136.5t-16.5 155z M240 440q0 -329 184 -329q186 0 186 342q0 338 -182 338q-188 0 -188 -351zM274 1196q0 -274 162 -274t162 256t-166 256q-158 0 -158 -238z" />
<glyph unicode="9" d="M106 1126q0 225 83 332t223 107q94 0 161.5 -38t103.5 -105.5t51 -142.5t15 -163q0 -248 -133 -579l-223 -537h-149l301 719l-4 4q-70 -53 -152 -53q-90 0 -150.5 53t-85 137t-33 145.5t-8.5 120.5zM246 1106q0 -311 180 -311q72 0 114 58t53 121.5t11 135.5 q0 51 -7 100.5t-25.5 103.5t-59.5 87t-98.5 33t-94 -32t-51 -91.5t-18.5 -102.5t-4 -102z" />
<glyph unicode=":" horiz-adv-x="425" d="M109 88q0 43 30.5 74t73.5 31t73.5 -31t30.5 -74t-30.5 -73.5t-73.5 -30.5t-73.5 30.5t-30.5 73.5zM109 963q0 43 30.5 73.5t73.5 30.5t73.5 -30.5t30.5 -73.5t-30.5 -74t-73.5 -31t-73.5 31t-30.5 74z" />
<glyph unicode=";" horiz-adv-x="425" d="M18 -283l158 476l146 -66l-205 -457zM111 963q0 43 30.5 73.5t73.5 30.5t73.5 -30.5t30.5 -73.5t-30.5 -74t-73.5 -31t-73.5 31t-30.5 74z" />
<glyph unicode="&#x3c;" horiz-adv-x="909" d="M43 479v90l825 480v-115l-714 -399v-11l714 -411v-115z" />
<glyph unicode="=" horiz-adv-x="909" d="M43 291v104h825v-104h-825zM43 655v105h825v-105h-825z" />
<glyph unicode="&#x3e;" horiz-adv-x="909" d="M43 -2v115l715 399v10l-715 412v115l825 -482v-90z" />
<glyph unicode="?" horiz-adv-x="892" d="M186 1153v55q0 84 9.5 141.5t36 110.5t82 79t141.5 26q78 0 130 -28t77.5 -79t36 -107.5t10.5 -129.5q0 -57 -1 -89t-6.5 -88.5t-14.5 -88t-28.5 -73.5t-47 -65.5t-71.5 -40t-100 -16.5v-373h-133v498h45q78 0 115 7t64.5 41t33.5 92t6 173q0 45 -1 72.5t-8 63.5 t-19.5 56.5t-36 35t-57.5 14.5q-43 0 -72 -21.5t-40 -61.5t-14.5 -72t-3.5 -77v-55h-133zM274 88q0 43 31 74t74 31t73.5 -31t30.5 -74t-30.5 -73.5t-73.5 -30.5t-74 30.5t-31 73.5z" />
<glyph unicode="@" horiz-adv-x="1638" d="M41 780q0 326 242.5 555.5t580.5 229.5q299 0 517 -188.5t218 -473.5q0 -125 -62 -262t-182 -237.5t-259 -100.5q-63 0 -112.5 27.5t-51.5 81.5q-115 -109 -281 -109q-133 0 -207.5 90t-74.5 228q0 145 61.5 286.5t183 240.5t273.5 99q80 0 146 -36.5t97 -104.5l31 100 h115l-217 -633q-37 -106 -23 -139q20 -37 82 -37q131 0 252 179.5t121 347.5q0 238 -189.5 385t-443.5 147q-293 0 -500.5 -207t-207.5 -485q-12 -274 200.5 -475t511.5 -201q168 0 329 77t263 206h111q-102 -180 -295 -285.5t-408 -105.5q-367 0 -600 232t-221 568z M481 635q0 -109 58.5 -172.5t142.5 -63.5q96 0 168 52.5t98 117.5l111 322q33 98 -18.5 178t-155.5 80q-109 0 -205 -89t-147.5 -207t-51.5 -218z" />
<glyph unicode="A" horiz-adv-x="747" d="M0 0l303 1544h135l310 -1544h-154l-57 317h-328l-55 -317h-154zM233 442h281l-102 592q-6 31 -39 316h-8q-4 -37 -17.5 -146.5t-23.5 -169.5z" />
<glyph unicode="B" horiz-adv-x="815" d="M123 0v1544h201q72 0 117.5 -5t99 -26.5t83 -61.5t50 -112.5t20.5 -177.5q0 -131 -36.5 -218t-143.5 -144q127 -41 172 -134.5t45 -240.5q0 -240 -93 -332t-329 -92h-186zM266 123h39q160 0 219.5 62.5t59.5 228.5q0 186 -65 255.5t-210 69.5h-43v-616zM266 862h39h21 q45 0 67.5 2t57 16.5t52 43t31 86t13.5 141.5q0 176 -48.5 223t-193.5 47h-39v-559z" />
<glyph unicode="C" horiz-adv-x="751" d="M78 717q0 74 1 127t10 148t24.5 165t48.5 152t77 133t113.5 87t155.5 36q117 0 182 -49v-158q-99 67 -178 67h-2q-285 0 -285 -649q0 -57 1 -94t6.5 -112.5t14.5 -129t29.5 -119t49 -105.5t72.5 -68.5t102 -28.5h3q91 0 187 69v-145q-92 -63 -196.5 -63t-182.5 52 t-121 129t-69.5 183.5t-34.5 193.5t-8 179z" />
<glyph unicode="D" horiz-adv-x="843" d="M123 0v1544h156q104 0 165.5 -9t131 -51t105.5 -122t60.5 -227.5t24.5 -362.5q0 -233 -20.5 -376.5t-77 -234.5t-145.5 -126t-234 -35h-166zM266 131h41q82 0 138.5 25.5t91 69.5t52 129t23.5 177.5t6 239.5q0 166 -8 271.5t-27.5 182.5t-59.5 115.5t-93 55t-139 16.5 h-25v-1282z" />
<glyph unicode="E" horiz-adv-x="692" d="M123 0v1544h485v-131h-342v-545h332v-131h-332v-606h342v-131h-485z" />
<glyph unicode="F" horiz-adv-x="702" d="M123 0v1544h493v-131h-350v-545h332v-131h-332v-737h-143z" />
<glyph unicode="G" horiz-adv-x="843" d="M78 809q0 158 12 275.5t49 235.5t115 181.5t195 63.5q248 0 315 -291l-141 -55q-37 206 -167 206h-1q-76 0 -125 -53t-70.5 -151.5t-28 -186.5t-6.5 -213q0 -281 25.5 -436.5t71 -210.5t124.5 -55q115 0 146 91t31 357v117h-209v131h352v-285q0 -76 -3 -127t-12.5 -122.5 t-31 -118.5t-57 -92t-93 -67.5t-135.5 -22.5q-80 0 -139 25.5t-98 81.5t-62.5 122.5t-36 169t-16.5 198t-4 232.5z" />
<glyph unicode="H" horiz-adv-x="886" d="M123 0v1544h143v-616h355v616h143v-1544h-143v797h-355v-797h-143z" />
<glyph unicode="I" horiz-adv-x="389" d="M123 0v1544h143v-1544h-143z" />
<glyph unicode="J" horiz-adv-x="536" d="M25 18v150q76 -68 141 -68q63 0 83.5 43t20.5 119v1282h144v-1255q0 -168 -39 -238.5t-182 -70.5q-88 0 -168 38z" />
<glyph unicode="K" horiz-adv-x="755" d="M123 0v1544h143v-700h4l308 700h159l-346 -735l348 -809h-161l-308 778h-4v-778h-143z" />
<glyph unicode="L" horiz-adv-x="602" d="M123 0v1544h143v-1413h336v-131h-479z" />
<glyph unicode="M" horiz-adv-x="1150" d="M47 0l217 1544h123l174 -1151q4 -23 7 -48.5t6.5 -57t5.5 -47.5h6q4 31 9 84t10 98t11 84l177 1038h122l189 -1544h-141l-109 1139q-4 51 -8 145h-8q-2 -18 -13.5 -132t-21.5 -173l-168 -979h-117l-170 1139q0 6 -18 145h-6q-12 -281 -15 -303l-123 -981h-139z" />
<glyph unicode="N" horiz-adv-x="890" d="M123 0v1544h125l354 -1073q18 -53 47 -160h6q0 16 -7 91t-7 114v1028h125v-1544h-125l-348 1038q-12 37 -30.5 110t-22.5 89h-9q16 -268 17 -299v-938h-125z" />
<glyph unicode="O" horiz-adv-x="913" d="M78 772q0 131 7 234.5t31.5 212t64.5 181.5t111 119t165 46q84 0 148.5 -34t104.5 -97.5t66.5 -136t38.5 -171t16.5 -176.5t4.5 -178q0 -76 -2.5 -136.5t-10.5 -146.5t-23.5 -151.5t-44 -136t-67.5 -116.5t-98.5 -75.5t-132.5 -29.5q-121 0 -201 69.5t-117 195.5 t-49 246.5t-12 280.5zM225 772q0 -102 3 -174t15.5 -171t36 -159.5t68.5 -104.5t108.5 -44t108.5 44t68.5 104.5t36 159.5t15.5 171t3 174t-3 174t-15.5 171.5t-36 159.5t-68.5 104t-108 44h-7q-48 -1 -87 -25q-41 -26 -65 -81t-40 -112.5t-22.5 -142.5t-8.5 -146.5 t-2 -145.5z" />
<glyph unicode="P" horiz-adv-x="733" d="M123 0v1544h160q80 0 130 -5t110.5 -26.5t95 -63.5t58 -119t23.5 -187q0 -223 -89 -313.5t-308 -90.5h-37v-739h-143zM266 870h56q143 0 185 56.5t46 216.5q0 160 -53.5 215t-204.5 55h-29v-543z" />
<glyph unicode="Q" horiz-adv-x="913" d="M78 772q0 401 88 597t287 196q76 0 136 -31t100 -78t68.5 -118.5t43 -137t22.5 -150.5t10.5 -140.5t2.5 -125.5q0 -455 -105 -651l111 -174l-111 -74l-94 146q-61 -51 -184 -51q-86 0 -150.5 35.5t-117 121.5t-80 246t-27.5 389zM225 772q0 -258 29 -404.5t77 -197.5 t126 -51q63 0 98 31l-131 212l113 74l106 -166q45 180 45 490q0 111 -3 185.5t-15.5 174t-36 159.5t-68.5 103t-108 43q-82 0 -131.5 -54t-75 -198.5t-25.5 -400.5z" />
<glyph unicode="R" horiz-adv-x="780" d="M123 0v1544h153q66 0 108 -3t96.5 -14t89 -38t66.5 -69t47 -109.5t15 -159.5q0 -82 -11 -145.5t-41 -123t-90 -93t-148 -35.5l342 -754h-152l-328 756h-4v-756h-143zM266 872h51q145 0 189.5 56.5t44.5 216.5q0 90 -13.5 144t-48 81t-76.5 35t-118 8h-29v-541z" />
<glyph unicode="S" horiz-adv-x="796" d="M61 1155q0 166 96.5 288t258.5 122q124 0 243 -82v-183q-111 125 -227 125q-102 0 -162.5 -72.5t-60.5 -176.5q0 -63 19.5 -115.5t66.5 -99t77.5 -70t100.5 -70.5q63 -43 99 -73.5t79 -81t63.5 -111.5t20.5 -137q0 -178 -106.5 -308t-280.5 -130q-141 0 -244 77v187 q117 -125 250 -125q108 0 172 81q62 79 62 184v7q0 59 -17.5 108.5t-56.5 91.5t-71.5 67.5t-90.5 66.5q-18 12 -26 18q-61 43 -98.5 74t-81.5 81t-64.5 113.5t-20.5 143.5z" />
<glyph unicode="T" horiz-adv-x="636" d="M16 1413v131h607v-131h-232v-1413h-143v1413h-232z" />
<glyph unicode="U" horiz-adv-x="880" d="M117 489v1055h143v-1046q0 -213 32 -296t148 -83q115 0 148 83t33 296v1046h143v-1055q0 -100 -4 -164.5t-22.5 -136t-52.5 -112.5t-95.5 -68.5t-149.5 -27.5q-90 0 -152.5 28.5t-95 69.5t-50 114.5t-21.5 135t-4 161.5z" />
<glyph unicode="V" horiz-adv-x="796" d="M23 1544h147l203 -1124q4 -16 8 -51t9 -85.5t7 -72.5h9q16 182 20 209l201 1124h145l-311 -1544h-127z" />
<glyph unicode="W" horiz-adv-x="1239" d="M37 1544h147l138 -1032q4 -33 8 -72t9 -85t7 -72h8q4 27 13.5 106.5t15.5 122.5l178 1032h123l147 -1032q6 -37 16.5 -115t14.5 -114h8q20 197 27 229l160 1032h145l-272 -1544h-131l-156 1040q-4 25 -7 67t-6 99.5t-5 85.5h-9q-2 -27 -10 -125t-12 -127l-180 -1040h-131 z" />
<glyph unicode="X" horiz-adv-x="823" d="M47 0l293 784l-293 760h154l207 -653h8q20 117 80 287l129 366h153l-289 -760l289 -784h-153l-209 657h-8q-8 -61 -70 -247l-137 -410h-154z" />
<glyph unicode="Y" horiz-adv-x="802" d="M39 1544h154l153 -520q8 -27 27.5 -97.5t32.5 -109.5h8q39 193 45 215l151 512h154l-283 -868v-676h-143v676z" />
<glyph unicode="Z" horiz-adv-x="686" d="M39 0l428 1413h-387v131h567l-432 -1413h389v-131h-565z" />
<glyph unicode="[" horiz-adv-x="614" d="M262 -238v1782h334v-86h-219v-1610h219v-86h-334z" />
<glyph unicode="\" horiz-adv-x="454" d="M-256 1638h123l903 -2080h-125z" />
<glyph unicode="]" horiz-adv-x="614" d="M18 -152h220v1610h-220v86h334v-1782h-334v86z" />
<glyph unicode="^" horiz-adv-x="909" d="M135 705l277 839h84l276 -839h-96l-223 686h-4l-218 -686h-96z" />
<glyph unicode="_" horiz-adv-x="1024" d="M0 -154h1024v-102h-1024v102z" />
<glyph unicode="`" horiz-adv-x="573" d="M94 1438l109 98l223 -276l-66 -62z" />
<glyph unicode="a" horiz-adv-x="714" d="M61 537q0 74 2.5 123t9.5 118.5t24.5 113.5t45 88t73.5 65.5t108 21.5q98 0 161 -88h4v72h134v-1051h-134v82h-4q-63 -98 -174 -98q-90 0 -141 42t-80 163.5t-29 347.5zM199 547q0 -125 8 -213t20.5 -135t35 -72t39.5 -30t46 -5q94 0 124 96.5t30 354.5q0 96 -5 162.5 t-19.5 129t-45.5 93t-78 30.5q-53 0 -85.5 -35.5t-47 -105t-18.5 -128t-4 -142.5z" />
<glyph unicode="b" horiz-adv-x="714" d="M92 0v1638h133v-659h4q57 88 164 88q86 0 142.5 -46t80 -134t30.5 -164t7 -186q0 -119 -7 -202t-30.5 -171t-77 -134t-135.5 -46q-111 0 -174 98h-4v-82h-133zM213 555q0 -231 20 -315q36 -148 134 -148q84 0 116.5 95.5t32.5 359.5q0 205 -31.5 308t-124.5 103 q-147 0 -147 -356v-24v-23z" />
<glyph unicode="c" horiz-adv-x="569" d="M61 504q0 70 6.5 136.5t26 147t51 140t90 99.5t134.5 40q79 0 145 -41v-154q-66 70 -127 70q-59 0 -101 -46t-58.5 -121t-22.5 -133t-6 -120q0 -51 7 -110.5t23.5 -133t55.5 -121.5t94 -48q70 0 131 94h4v-166q-63 -53 -152 -53q-86 0 -148 54t-93 140t-45.5 167 t-14.5 159z" />
<glyph unicode="d" horiz-adv-x="714" d="M61 537q0 96 5.5 165.5t20.5 143.5t43 119t77 73.5t117 28.5q98 0 161 -88h4v659h134v-1638h-134v82h-4q-63 -98 -174 -98q-78 0 -130 44t-76.5 128t-34 171t-9.5 210zM198 449.5q1 -21.5 2 -63.5t5 -70.5t11 -65.5t18.5 -62.5t26.5 -49t38 -35t49 -11.5q51 0 83 29 t47.5 95.5t19.5 137t4 189.5q0 133 -10.5 217t-44 141t-93.5 57q-155 0 -155 -406v-5q0 -6 -1 -41t0 -56.5z" />
<glyph unicode="e" horiz-adv-x="702" d="M61 522q0 86 11.5 168t40 173t91 147.5t152.5 56.5q86 0 146.5 -51t88 -135t39 -161t11.5 -159v-63h-442v-31q0 -51 6 -102.5t21.5 -114t50 -102t85.5 -39.5q41 0 70 25.5t41 67.5t17.5 78.5t5.5 75.5h137q-2 -90 -23.5 -168.5t-83 -141t-151.5 -62.5q-313 0 -314 538z M201 610h305l-2 19q-2 43 -3 59.5t-6.5 64.5t-14.5 72.5t-24.5 56t-41 46t-58.5 14.5q-45 0 -77.5 -38t-48 -94t-22.5 -106.5t-7 -93.5z" />
<glyph unicode="f" horiz-adv-x="425" d="M0 928v123h113v309q0 295 196 295q66 0 117 -23v-145q-57 45 -96 45q-51 0 -67.5 -40t-16.5 -128v-313h174v-123h-174v-928h-133v928h-113z" />
<glyph unicode="g" horiz-adv-x="724" d="M61 549q0 518 265 518q109 0 170 -88h4v72h133v-1090q0 -74 -3 -117t-17.5 -99t-42 -87t-81 -53.5t-131.5 -22.5q-135 0 -202.5 76t-67.5 215v39h131v-18q0 -186 141 -187q41 0 68 14.5t41 31t20.5 53t7.5 56t1 64.5v25v123q-66 -74 -170 -74q-63 0 -110.5 25.5t-75 77 t-45 100.5t-24.5 122.5t-9.5 116.5t-2.5 107zM199 508q0 -45 1 -70.5t5 -82t14 -92.5t27.5 -74.5t47.5 -59t71 -20.5q94 0 120.5 109.5t26.5 326.5q0 88 -5 148.5t-19.5 128t-48 102t-85.5 34.5q-53 0 -83.5 -30.5t-51 -132t-20.5 -287.5z" />
<glyph unicode="h" horiz-adv-x="727" d="M92 0v1638h133v-671q86 100 207 100q68 0 112 -26.5t62.5 -79t23.5 -96.5t5 -113v-752h-133v729q0 129 -23.5 179t-95.5 50q-53 0 -88 -25.5t-48.5 -73.5t-17.5 -85t-4 -92v-682h-133z" />
<glyph unicode="i" horiz-adv-x="317" d="M59 1362q0 41 30 69.5t71 28.5t69.5 -29.5t28.5 -68.5q0 -41 -28.5 -70.5t-69.5 -29.5t-71 29.5t-30 70.5zM92 0v1051h133v-1051h-133z" />
<glyph unicode="j" horiz-adv-x="317" d="M59 1362q0 41 30 69.5t71 28.5t69.5 -29.5t28.5 -68.5q0 -41 -28.5 -70.5t-69.5 -29.5t-71 29.5t-30 70.5zM92 -387v1438h133v-1438h-133z" />
<glyph unicode="k" horiz-adv-x="718" d="M92 0v1638h133v-1013h4l256 426h152l-313 -471l395 -580h-166l-324 504h-4v-504h-133z" />
<glyph unicode="l" horiz-adv-x="317" d="M92 0v1638h133v-1638h-133z" />
<glyph unicode="m" horiz-adv-x="1144" d="M92 0v1051h133v-88h4q80 104 199 104q139 0 195 -125q88 125 217 125q57 0 97 -18.5t62.5 -45t35 -71.5t15.5 -83t3 -93v-756h-133v752q0 61 -6.5 100t-34 72.5t-78.5 33.5q-55 0 -91 -27.5t-49.5 -80.5t-17.5 -95t-4 -108v-647h-133v750q0 63 -5 101t-32 72.5t-78 34.5 q-57 0 -93 -30.5t-50.5 -89t-18.5 -102.5t-4 -111v-625h-133z" />
<glyph unicode="n" horiz-adv-x="727" d="M92 0v1051h133v-84q86 100 207 100q66 0 110 -27.5t62.5 -79t24.5 -97.5t6 -111v-752h-133v737q0 113 -21.5 167t-97.5 54q-53 0 -88 -25.5t-48.5 -73.5t-17.5 -85t-4 -92v-682h-133z" />
<glyph unicode="o" horiz-adv-x="727" d="M61 526q0 541 301.5 541t301.5 -541q0 -543 -301 -543l-1 1q-302 0 -301 542zM199 526q0 -418 163 -418q164 0 164 418q0 416 -163.5 416t-163.5 -416z" />
<glyph unicode="p" horiz-adv-x="714" d="M92 -401v1452h133v-72h4q63 88 164 88q59 0 104.5 -23.5t72 -67.5t45 -93t25.5 -116t10 -117t3 -113q0 -76 -2 -125.5t-8 -122t-23.5 -119.5t-43 -94t-69.5 -69.5t-104 -22.5q-111 0 -174 98h-4v-483h-133zM213 555q0 -96 4 -161.5t17.5 -142.5t47.5 -118t85 -41 q90 0 119.5 96.5t29.5 348.5q0 84 -3 138t-16.5 130t-48 114.5t-88.5 38.5q-41 0 -69.5 -25.5t-43 -61t-22.5 -96t-10 -105.5t-2 -115z" />
<glyph unicode="q" horiz-adv-x="714" d="M61 537q0 109 7.5 185.5t32 164.5t81 134t142.5 46q98 0 161 -88h4v72h134v-1452h-134v483h-4q-63 -98 -174 -98q-57 0 -101 23.5t-70.5 69.5t-43 94t-23.5 119.5t-9.5 122t-2.5 124.5zM199 547q0 -109 4 -176.5t18.5 -139t46 -105.5t80.5 -34q51 0 83 31t46.5 96.5 t19.5 137t5 186.5q0 201 -32 308t-116 107q-88 0 -121.5 -102t-33.5 -309z" />
<glyph unicode="r" horiz-adv-x="419" d="M92 0v1051h133v-140h4q60 156 171 156h3v-156l-26 2q-66 0 -100.5 -44t-43 -101t-8.5 -156v-612h-133z" />
<glyph unicode="s" horiz-adv-x="569" d="M47 55v156q98 -102 186 -102q68 0 111 46t43 113q0 49 -28.5 98.5t-54 74t-87.5 77.5q-53 47 -84 80t-58.5 87t-27.5 114q0 119 73 193.5t189 74.5q97 0 185 -68v-163h-5q-76 106 -174 106q-59 0 -95 -40t-36 -99q0 -16 2 -31.5t10.5 -31t13.5 -27t18.5 -26.5t19.5 -22.5 t25.5 -24.5t24.5 -22.5t28.5 -24t27.5 -22.5q82 -68 126 -131t44 -155q0 -129 -78.5 -215t-207.5 -86q-100 0 -191 71z" />
<glyph unicode="t" horiz-adv-x="430" d="M35 928v123h112v286h134v-286h174v-123h-174v-928h-134v928h-112z" />
<glyph unicode="u" horiz-adv-x="716" d="M84 279v772h133v-660q0 -66 4 -106.5t16.5 -85.5t42 -67.5t76.5 -22.5q49 0 79 21.5t43.5 68.5t17.5 86t4 106v660h133v-772q0 -137 -68.5 -216t-206.5 -79q-135 0 -204.5 78.5t-69.5 216.5z" />
<glyph unicode="v" horiz-adv-x="647" d="M16 1051h136l135 -658q6 -33 19 -98.5t20 -97.5h8q16 137 28 196l134 658h137l-234 -1051h-143z" />
<glyph unicode="w" horiz-adv-x="1032" d="M23 1051h135l100 -621q8 -47 24.5 -137t18.5 -100h8q29 227 31 237l102 621h136l110 -727q2 -23 8 -66t11 -65h6q0 4 11 83.5t19 120.5l131 654h136l-232 -1051h-137l-121 762q-4 20 -6 60t-4 52h-6q-16 -158 -21 -190l-112 -684h-135z" />
<glyph unicode="x" horiz-adv-x="686" d="M31 0l241 537l-217 514h148l86 -234q45 -127 61 -213h8q43 174 62 219l88 228h147l-235 -514l235 -537h-147l-109 276q-45 115 -55 177h-8q-10 -72 -51 -179l-105 -274h-149z" />
<glyph unicode="y" horiz-adv-x="679" d="M16 1051h136l176 -848h6q6 31 17 85t20.5 99t17.5 86l135 578h140l-363 -1452h-139l104 430z" />
<glyph unicode="z" horiz-adv-x="677" d="M31 0l415 928h-358v123h559l-426 -928h357v-123h-547z" />
<glyph unicode="{" horiz-adv-x="614" d="M98 657v68q72 16 109 47q29 23 42 53.5t15 51t2 67.5v303q0 166 56.5 231.5t199.5 65.5h45v-67q-113 -8 -149.5 -57.5t-36.5 -162.5v-288q0 -113 -33 -177.5t-129 -97.5v-6q96 -33 129 -97.5t33 -176.5v-289q0 -113 37 -162t149 -57v-68h-45q-143 0 -199.5 65.5 t-56.5 231.5v303q0 47 -2 67.5t-15 51.5t-42 53q-37 31 -109 47z" />
<glyph unicode="|" horiz-adv-x="454" d="M174 -438v2048h105v-2048h-105z" />
<glyph unicode="}" horiz-adv-x="614" d="M47 -166l4 4v68q113 8 150 57t37 162v289q0 113 32.5 177t128.5 97v6q-96 33 -128.5 97.5t-32.5 177.5v288q0 113 -37 162t-150 58v67h45q143 0 199.5 -65.5t56.5 -231.5v-303q0 -47 2 -67.5t15.5 -51t42.5 -53.5q37 -31 104 -47v-68q-68 -16 -104 -47 q-29 -23 -42.5 -53.5t-15.5 -51t-2 -67.5v-303q0 -166 -56 -231.5t-200 -65.5h-45v-4h-4z" />
<glyph unicode="~" horiz-adv-x="909" d="M43 455q106 176 233 176q66 0 193 -53q131 -53 168 -54q86 0 164 125l67 -69q-102 -166 -231 -166q-45 0 -221 65q-102 39 -140 39q-39 0 -74.5 -25.5t-48.5 -45t-42 -64.5z" />
<glyph unicode="&#xa1;" horiz-adv-x="702" d="M246 1061q0 43 30.5 73.5t73.5 30.5t74 -30.5t31 -73.5t-31 -74t-74 -31t-73.5 31t-30.5 74zM283 -395v1157h137v-1157h-137z" />
<glyph unicode="&#xa2;" d="M174 774q0 492 250 555v184h100v-180q63 -10 103 -37v-153q-66 70 -127 69q-59 0 -100.5 -46t-57.5 -120.5t-22.5 -133t-6.5 -119.5q0 -51 6.5 -110.5t23.5 -133.5t55 -122t94 -48q70 0 131 94h4v-166q-39 -33 -103 -47v-203h-100v203q-250 78 -250 514z" />
<glyph unicode="&#xa3;" d="M70 74q31 70 84 117t118 47q12 0 33 -5q59 90 60 187q-1 115 -58 201h-215v96h166q-158 254 -158 448q0 172 95.5 286t261.5 114q137 0 225 -102.5t92 -245.5l-139 -27q-2 104 -50 174t-139 70q-104 0 -155 -75t-51 -185q0 -35 4 -69t17 -73t21.5 -63.5t31 -68.5 t30.5 -59.5t37 -65.5t33 -58h241v-96h-192q41 -92 41 -170q0 -152 -86 -258q16 -8 51 -37t66.5 -48.5t58.5 -19.5q70 2 84 123l121 -37q-6 -90 -61.5 -153.5t-139.5 -63.5q-16 0 -30.5 2t-31 8t-24.5 8t-27.5 13.5t-23.5 14.5t-26.5 17.5t-24.5 16.5q-4 2 -33 22.5 t-50.5 30.5t-37.5 10q-70 0 -101 -98z" />
<glyph unicode="&#xa4;" d="M-35 563q0 156 88 279l-80 80l97 96l82 -78q121 90 282 90q139 0 271 -90l79 78l97 -96l-80 -80q88 -125 88 -287q0 -135 -88 -264l80 -78l-97 -98l-79 80q-127 -92 -287 -93q-137 0 -266 93l-82 -80l-97 98l80 78q-88 127 -88 272zM86 563q2 -137 101.5 -236.5 t236.5 -103.5q141 4 241.5 102.5t102.5 243.5q-4 137 -101.5 239.5t-232.5 100.5q-145 2 -245.5 -97t-102.5 -249z" />
<glyph unicode="&#xa5;" d="M37 625v88h315l-51 157h-264v88h233l-202 586h149l213 -727h4l58 254l141 473h149l-190 -586h221v-88h-252l-49 -157h301v-88h-309v-625h-139v625h-328z" />
<glyph unicode="&#xa6;" horiz-adv-x="454" d="M174 -182v512h105v-512h-105zM174 842v512h105v-512h-105z" />
<glyph unicode="&#xa7;" horiz-adv-x="849" d="M94 567q0 145 63.5 250t196.5 127v4l-43 23q-170 88 -170 284q0 133 82 221.5t215 88.5q117 0 199 -77t84 -192h-133q-8 66 -49 107t-107 41q-80 0 -124 -56.5t-44 -136.5q0 -86 52.5 -139t150.5 -106q158 -86 224.5 -182.5t66.5 -245.5q0 -145 -50.5 -249t-152.5 -139 v-4q160 -90 160 -297q0 -129 -84 -217t-211 -88q-125 0 -204 83t-83 208h133q10 -170 160 -170q76 0 121 53.5t45 130.5q0 100 -57.5 160t-163.5 107q-150 66 -213.5 167t-63.5 244zM227 571q0 -207 170 -288l58 -27q170 33 170 293q0 244 -150 311l-43 14 q-205 -10 -205 -303z" />
<glyph unicode="&#xa8;" horiz-adv-x="573" d="M49 1358q0 39 27.5 66.5t66.5 27.5t67 -27.5t28 -66.5t-28 -66.5t-67 -27.5t-66.5 27.5t-27.5 66.5zM336 1358q0 39 27.5 66.5t66.5 27.5t66.5 -27.5t27.5 -66.5t-27.5 -66.5t-66.5 -27.5t-66.5 27.5t-27.5 66.5z" />
<glyph unicode="&#xa9;" horiz-adv-x="1638" d="M74 774q0 326 219 558.5t528 232.5t527.5 -232.5t218.5 -558.5q0 -330 -218.5 -562t-527.5 -232t-528 232t-219 562zM182 774q0 -291 183.5 -488.5t455.5 -197.5q270 0 453.5 197.5t183.5 488.5q0 281 -184 481.5t-452.5 200.5t-454 -200.5t-185.5 -481.5zM440 780 q0 199 112 327t298 128q135 0 231.5 -80t118.5 -219h-121q-14 90 -77.5 140t-149.5 50q-135 0 -213 -98t-78 -246q0 -141 81 -246.5t212 -105.5q84 0 149.5 55.5t75.5 143.5h121q-14 -137 -113.5 -222t-232.5 -85q-182 0 -298 131t-116 327z" />
<glyph unicode="&#xaa;" horiz-adv-x="614" d="M115 1217q0 70 5 119.5t20.5 108t53 89.5t95.5 31q63 0 102 -45v34h98v-682h-98v41h-4q-35 -51 -104 -51q-53 0 -89 29t-52.5 84t-21.5 109.5t-5 132.5zM217 1241q0 -162 17.5 -229.5t70.5 -67.5q23 0 40 11.5t27.5 34t16.5 43t8 55t3 52t0 50.5t-1 35q0 184 -39 233 q-23 23 -51 25q-92 0 -92 -242z" />
<glyph unicode="&#xab;" horiz-adv-x="770" d="M92 659l252 437l88 -49l-219 -388l219 -397l-88 -51zM352 659l250 437l90 -49l-219 -388l219 -397l-90 -51z" />
<glyph unicode="&#xac;" horiz-adv-x="909" d="M43 655v105h825v-547h-104v442h-721z" />
<glyph unicode="&#xad;" horiz-adv-x="319" d="M0 573v162h319v-162h-319z" />
<glyph unicode="&#xae;" horiz-adv-x="1638" d="M74 774q0 326 219 558.5t528 232.5t527.5 -232.5t218.5 -558.5q0 -330 -218.5 -562t-527.5 -232t-528 232t-219 562zM182 774q0 -291 183.5 -488.5t455.5 -197.5q270 0 453.5 197.5t183.5 488.5q0 281 -184 481.5t-452.5 200.5t-454 -200.5t-185.5 -481.5zM510 330v887 h381q141 0 213 -46q47 -27 72.5 -79t25.5 -111q0 -125 -75.5 -185.5t-200.5 -64.5l264 -401h-137l-250 401h-176v-401h-117zM627 823h153q172 0 236.5 30t64.5 130q0 141 -215 141h-239v-301z" />
<glyph unicode="&#xaf;" horiz-adv-x="573" d="M27 1300v109h522v-109h-522z" />
<glyph unicode="&#xb0;" horiz-adv-x="819" d="M102 1257q0 127 90.5 217.5t217.5 90.5t217 -90.5t90 -217.5t-90 -217t-217 -90t-217.5 90t-90.5 217zM184 1257.5q0 -92.5 66.5 -159t159 -66.5t159 66.5t66.5 159t-66.5 159t-159 66.5t-159 -66.5t-66.5 -159z" />
<glyph unicode="&#xb1;" horiz-adv-x="909" d="M43 23v104h825v-104h-825zM43 575v105h360v346h105v-346h360v-105h-360v-348h-105v348h-360z" />
<glyph unicode="&#xb2;" horiz-adv-x="512" d="M45 627l201 379q123 231 123 354q0 121 -101 121q-106 0 -106 -162v-19h-101q0 264 201 265q102 0 154.5 -58.5t52.5 -152.5q0 -39 -6 -76t-25.5 -86t-28 -68.5t-39 -82t-32.5 -66.5l-143 -260h262v-88h-412z" />
<glyph unicode="&#xb3;" horiz-adv-x="512" d="M47 840v41h100v-27q4 -156 111 -156q104 0 104 195q0 98 -38.5 149.5t-137.5 49.5h-26v86h16q100 0 137 33.5t37 136.5q0 133 -96 133q-57 0 -75.5 -39t-18.5 -105h-101q-4 92 44.5 160t144.5 68q102 0 152.5 -57.5t50.5 -153.5q0 -168 -115 -215q127 -43 127 -260 q0 -265 -203 -265q-213 0 -213 226z" />
<glyph unicode="&#xb4;" horiz-adv-x="573" d="M147 1260l224 276l108 -98l-266 -240z" />
<glyph unicode="&#xb5;" horiz-adv-x="716" d="M88 -401v1452h133v-682q0 -55 4 -92t17.5 -85.5t48.5 -74t88 -25.5q74 0 96.5 47t22.5 183v729h133v-752q0 -70 -5 -114t-23.5 -96t-62.5 -78.5t-112 -26.5q-121 0 -207 100v-485h-133z" />
<glyph unicode="&#xb6;" horiz-adv-x="849" d="M10 1192q0 168 93.5 260t324.5 92h369v-1939h-95v1853h-163v-1853h-95v1243h-24q-117 0 -202 31.5t-128 86t-61.5 109.5t-18.5 117z" />
<glyph unicode="&#xb7;" horiz-adv-x="425" d="M109 516q0 43 29.5 74t72.5 31q45 0 75.5 -31t30.5 -74t-30.5 -73.5t-75.5 -30.5q-43 0 -72.5 30.5t-29.5 73.5z" />
<glyph unicode="&#xb8;" horiz-adv-x="573" d="M117 -406l170 322l108 -59l-194 -310z" />
<glyph unicode="&#xb9;" horiz-adv-x="512" d="M88 1468l21 84h208v-925h-100v841h-129z" />
<glyph unicode="&#xba;" horiz-adv-x="614" d="M106 1214q0 350 207 351q197 0 197 -351q0 -352 -197 -352q-207 0 -207 352zM209 1214q0 -260 102 -260q96 0 97 260q0 258 -97 259q-102 0 -102 -259z" />
<glyph unicode="&#xbb;" horiz-adv-x="770" d="M78 262l219 397l-219 388l88 49l252 -437l-252 -448zM338 262l221 397l-221 388l90 49l250 -437l-250 -448z" />
<glyph unicode="&#xbc;" horiz-adv-x="1273" d="M72 1468l20 84h209v-925h-100v841h-129zM240 0l669 1544h84l-667 -1544h-86zM743 248v88l265 590h110v-598h76v-80h-76v-248h-100v248h-275zM840 328h178v276q0 31 6 100.5t8 86.5h-4z" />
<glyph unicode="&#xbd;" horiz-adv-x="1273" d="M88 1468l21 84h208v-925h-100v841h-129zM219 0l670 1544h84l-668 -1544h-86zM782 0l201 379q123 231 123 354q0 121 -100 121q-106 0 -107 -162v-18h-100q0 264 200 264q102 0 154.5 -58.5t52.5 -152.5q0 -39 -6 -76t-25.5 -86t-27.5 -68.5t-39 -82t-33 -66.5l-143 -260 h262v-88h-412z" />
<glyph unicode="&#xbe;" horiz-adv-x="1273" d="M88 840v41h100v-27q4 -156 111 -156q104 0 104 195q0 98 -38.5 149.5t-137.5 49.5h-26v86h16q100 0 137 33.5t37 136.5q0 133 -96 133q-57 0 -75.5 -39t-18.5 -105h-101q-4 92 44.5 160t144.5 68q102 0 152.5 -57.5t50.5 -153.5q0 -168 -115 -215q127 -43 127 -260 q0 -265 -203 -265q-213 0 -213 226zM322 0l669 1544h84l-667 -1544h-86zM743 248v88l265 590h110v-598h76v-80h-76v-248h-100v248h-275zM840 328h178v276q12 143 14 187h-4z" />
<glyph unicode="&#xbf;" horiz-adv-x="892" d="M188 -72q0 57 1 89t6.5 88.5t14.5 88t28.5 73.5t47 65.5t71.5 40t100 16.5v373h133v-498h-45q-78 0 -115 -7t-64.5 -41t-33.5 -92t-6 -173q0 -45 1 -73t8 -63.5t19.5 -56t36 -35t58.5 -14.5q43 0 71.5 21.5t39.5 61.5t14.5 72t3.5 77v55h133v-55q0 -84 -9.5 -141.5 t-36 -111t-82 -79t-141.5 -25.5q-78 0 -130 28t-77.5 79t-36 107.5t-10.5 129.5zM410 1061q0 43 30.5 73.5t73.5 30.5t73.5 -30.5t30.5 -73.5t-30.5 -74t-73.5 -31t-73.5 31t-30.5 74z" />
<glyph unicode="&#xc0;" horiz-adv-x="747" d="M0 0l303 1544h135l310 -1544h-154l-57 317h-328l-55 -317h-154zM182 1870l109 98l223 -276l-66 -62zM233 442h281l-102 592q-6 31 -39 316h-8q-4 -37 -17.5 -146.5t-23.5 -169.5z" />
<glyph unicode="&#xc1;" horiz-adv-x="747" d="M0 0l303 1544h135l310 -1544h-154l-57 317h-328l-55 -317h-154zM233 442h281l-102 592q-6 31 -39 316h-8q-4 -37 -17.5 -146.5t-23.5 -169.5zM235 1692l224 276l108 -98l-266 -240z" />
<glyph unicode="&#xc2;" horiz-adv-x="747" d="M0 0l303 1544h135l310 -1544h-154l-57 317h-328l-55 -317h-154zM119 1704l252 250l260 -250l-76 -74l-184 176l-183 -176zM233 442h281l-102 592q-6 31 -39 316h-8q-4 -37 -17.5 -146.5t-23.5 -169.5z" />
<glyph unicode="&#xc3;" horiz-adv-x="747" d="M0 0l303 1544h135l310 -1544h-154l-57 317h-328l-55 -317h-154zM108 1706q4 66 49.5 116t116.5 50q35 0 107 -37t90 -37q25 0 39 20.5t12 43.5h121q-4 -57 -46 -111.5t-112 -54.5q-39 0 -116 39q-66 39 -93 38q-49 1 -49 -67h-119zM233 442h281l-102 592q-6 31 -39 316 h-8q-4 -37 -17.5 -146.5t-23.5 -169.5z" />
<glyph unicode="&#xc4;" horiz-adv-x="747" d="M0 0l303 1544h135l310 -1544h-154l-57 317h-328l-55 -317h-154zM137 1790q0 39 27.5 66.5t66.5 27.5t67 -27.5t28 -66.5t-28 -66.5t-67 -27.5t-66.5 27.5t-27.5 66.5zM233 442h281l-102 592q-6 31 -39 316h-8q-4 -37 -17.5 -146.5t-23.5 -169.5zM424 1790q0 39 27.5 66.5 t66.5 27.5t66.5 -27.5t27.5 -66.5t-27.5 -66.5t-66.5 -27.5t-66.5 27.5t-27.5 66.5z" />
<glyph unicode="&#xc5;" horiz-adv-x="747" d="M0 0l303 1544h135l310 -1544h-154l-57 317h-328l-55 -317h-154zM190 1763.5q0 75.5 54.5 130t132.5 54.5q76 0 130 -54.5t54 -129.5q0 -78 -54 -132.5t-130 -54.5t-131.5 55.5t-55.5 131zM233 442h281l-102 592q-6 31 -39 316h-8q-4 -37 -17.5 -146.5t-23.5 -169.5z M283 1764q0 -39 27.5 -67t66.5 -28t65.5 28t26.5 67t-26.5 65.5t-65.5 26.5t-66.5 -26.5t-27.5 -65.5z" />
<glyph unicode="&#xc6;" horiz-adv-x="1087" d="M0 0l311 1544h508l23 -131h-342l102 -545h320l24 -131h-319l114 -606h326l20 -131h-477l-53 317h-350l-53 -317h-154zM231 442h306l-115 684q-4 25 -27 254h-6q-6 -41 -21.5 -126t-23.5 -128z" />
<glyph unicode="&#xc7;" horiz-adv-x="751" d="M78 717q0 74 1 127t10 148t24.5 165t48.5 152t77 133t113.5 87t155.5 36q117 0 182 -49v-158q-100 68 -180 67q-285 0 -285 -649q0 -57 1 -94t6.5 -112.5t14.5 -129t29.5 -119t49 -105.5t72.5 -68.5t102 -28.5q92 -1 190 69v-145q-92 -63 -196.5 -63t-182.5 52t-121 129 t-69.5 183.5t-34.5 193.5t-8 179zM248 -406l170 322l108 -59l-194 -310z" />
<glyph unicode="&#xc8;" horiz-adv-x="692" d="M123 0v1544h485v-131h-342v-545h332v-131h-332v-606h342v-131h-485zM153 1870l109 98l223 -276l-66 -62z" />
<glyph unicode="&#xc9;" horiz-adv-x="692" d="M123 0v1544h485v-131h-342v-545h332v-131h-332v-606h342v-131h-485zM268 1692l224 276l108 -98l-266 -240z" />
<glyph unicode="&#xca;" horiz-adv-x="692" d="M90 1704l252 250l260 -250l-76 -74l-184 176l-183 -176zM123 0v1544h485v-131h-342v-545h332v-131h-332v-606h342v-131h-485z" />
<glyph unicode="&#xcb;" horiz-adv-x="692" d="M121 1790q0 39 27.5 66.5t66.5 27.5t67 -27.5t28 -66.5t-28 -66.5t-67 -27.5t-66.5 27.5t-27.5 66.5zM123 0v1544h485v-131h-342v-545h332v-131h-332v-606h342v-131h-485zM408 1790q0 39 27.5 66.5t66.5 27.5t66.5 -27.5t27.5 -66.5t-27.5 -66.5t-66.5 -27.5t-66.5 27.5 t-27.5 66.5z" />
<glyph unicode="&#xcc;" horiz-adv-x="389" d="M2 1870l109 98l223 -276l-66 -62zM123 0v1544h143v-1544h-143z" />
<glyph unicode="&#xcd;" horiz-adv-x="389" d="M55 1692l224 276l108 -98l-266 -240zM123 0v1544h143v-1544h-143z" />
<glyph unicode="&#xce;" horiz-adv-x="389" d="M-61 1704l252 250l260 -250l-76 -74l-184 176l-183 -176zM123 0v1544h143v-1544h-143z" />
<glyph unicode="&#xcf;" horiz-adv-x="389" d="M-43 1790q0 39 27.5 66.5t66.5 27.5t67 -27.5t28 -66.5t-28 -66.5t-67 -27.5t-66.5 27.5t-27.5 66.5zM123 0v1544h143v-1544h-143zM244 1790q0 39 27.5 66.5t66.5 27.5t66.5 -27.5t27.5 -66.5t-27.5 -66.5t-66.5 -27.5t-66.5 27.5t-27.5 66.5z" />
<glyph unicode="&#xd0;" horiz-adv-x="843" d="M-25 737v131h148v676h156q104 0 165.5 -9t131 -50t105.5 -120t60.5 -222.5t24.5 -354.5q0 -319 -41 -484t-141.5 -234.5t-294.5 -69.5h-166v737h-148zM266 131h41q49 0 90 11.5t72 26.5t54.5 45t39 54.5t25.5 69.5t16 72.5t9 81t4 80t1 84v77.5q0 178 -8 291t-27.5 193.5 t-59.5 120.5t-93 57.5t-139 17.5h-25v-545h140v-131h-140v-606z" />
<glyph unicode="&#xd1;" horiz-adv-x="890" d="M123 0v1544h125l354 -1073q18 -53 47 -160h6q0 16 -7 91t-7 114v1028h125v-1544h-125l-348 1038q-12 37 -30.5 110t-22.5 89h-9q16 -268 17 -299v-938h-125zM180 1706q4 66 49.5 116t116.5 50q35 0 107 -37t90 -37q25 0 39 20.5t12 43.5h121q-4 -57 -46 -111.5 t-112 -54.5q-39 0 -116 39q-66 39 -93 38q-49 1 -49 -67h-119z" />
<glyph unicode="&#xd2;" horiz-adv-x="913" d="M78 772q0 131 7 234.5t31.5 212t64.5 181.5t111 119t165 46q84 0 148.5 -34t104.5 -97.5t66.5 -136t38.5 -171t16.5 -176.5t4.5 -178q0 -76 -2.5 -136.5t-10.5 -146.5t-23.5 -151.5t-44 -136t-67.5 -116.5t-98.5 -75.5t-132.5 -29.5q-121 0 -201 69.5t-117 195.5 t-49 246.5t-12 280.5zM225 772q0 -102 3 -174t15.5 -171t36 -159.5t68.5 -104.5t108.5 -44t108.5 44t68.5 104.5t36 159.5t15.5 171t3 174t-3 174t-15.5 171.5t-36 159.5t-68.5 104t-108 44q-53 2 -94 -24.5t-65 -81.5t-40 -112.5t-22.5 -142.5t-8.5 -146.5t-2 -145.5z M233 1870l109 98l223 -276l-66 -62z" />
<glyph unicode="&#xd3;" horiz-adv-x="913" d="M78 772q0 131 7 234.5t31.5 212t64.5 181.5t111 119t165 46q84 0 148.5 -34t104.5 -97.5t66.5 -136t38.5 -171t16.5 -176.5t4.5 -178q0 -76 -2.5 -136.5t-10.5 -146.5t-23.5 -151.5t-44 -136t-67.5 -116.5t-98.5 -75.5t-132.5 -29.5q-121 0 -201 69.5t-117 195.5 t-49 246.5t-12 280.5zM225 772q0 -102 3 -174t15.5 -171t36 -159.5t68.5 -104.5t108.5 -44t108.5 44t68.5 104.5t36 159.5t15.5 171t3 174t-3 174t-15.5 171.5t-36 159.5t-68.5 104t-108 44q-53 2 -94 -24.5t-65 -81.5t-40 -112.5t-22.5 -142.5t-8.5 -146.5t-2 -145.5z M348 1692l224 276l108 -98l-266 -240z" />
<glyph unicode="&#xd4;" horiz-adv-x="913" d="M78 772q0 131 7 234.5t31.5 212t64.5 181.5t111 119t165 46q84 0 148.5 -34t104.5 -97.5t66.5 -136t38.5 -171t16.5 -176.5t4.5 -178q0 -76 -2.5 -136.5t-10.5 -146.5t-23.5 -151.5t-44 -136t-67.5 -116.5t-98.5 -75.5t-132.5 -29.5q-121 0 -201 69.5t-117 195.5 t-49 246.5t-12 280.5zM201 1704l252 250l260 -250l-76 -74l-184 176l-183 -176zM225 772q0 -102 3 -174t15.5 -171t36 -159.5t68.5 -104.5t108.5 -44t108.5 44t68.5 104.5t36 159.5t15.5 171t3 174t-3 174t-15.5 171.5t-36 159.5t-68.5 104t-108 44q-53 2 -94 -24.5 t-65 -81.5t-40 -112.5t-22.5 -142.5t-8.5 -146.5t-2 -145.5z" />
<glyph unicode="&#xd5;" horiz-adv-x="913" d="M78 772q0 131 7 234.5t31.5 212t64.5 181.5t111 119t165 46q84 0 148.5 -34t104.5 -97.5t66.5 -136t38.5 -171t16.5 -176.5t4.5 -178q0 -76 -2.5 -136.5t-10.5 -146.5t-23.5 -151.5t-44 -136t-67.5 -116.5t-98.5 -75.5t-132.5 -29.5q-121 0 -201 69.5t-117 195.5 t-49 246.5t-12 280.5zM190 1706q4 66 49.5 116t116.5 50q35 0 107 -37t90 -37q25 0 39 20.5t12 43.5h121q-4 -57 -46 -111.5t-112 -54.5q-39 0 -116 39q-66 39 -93 38q-49 1 -49 -67h-119zM225 772q0 -102 3 -174t15.5 -171t36 -159.5t68.5 -104.5t108.5 -44t108.5 44 t68.5 104.5t36 159.5t15.5 171t3 174t-3 174t-15.5 171.5t-36 159.5t-68.5 104t-108 44q-53 2 -94 -24.5t-65 -81.5t-40 -112.5t-22.5 -142.5t-8.5 -146.5t-2 -145.5z" />
<glyph unicode="&#xd6;" horiz-adv-x="913" d="M78 772q0 131 7 234.5t31.5 212t64.5 181.5t111 119t165 46q84 0 148.5 -34t104.5 -97.5t66.5 -136t38.5 -171t16.5 -176.5t4.5 -178q0 -76 -2.5 -136.5t-10.5 -146.5t-23.5 -151.5t-44 -136t-67.5 -116.5t-98.5 -75.5t-132.5 -29.5q-121 0 -201 69.5t-117 195.5 t-49 246.5t-12 280.5zM219 1790q0 39 27.5 66.5t66.5 27.5t67 -27.5t28 -66.5t-28 -66.5t-67 -27.5t-66.5 27.5t-27.5 66.5zM225 772q0 -102 3 -174t15.5 -171t36 -159.5t68.5 -104.5t108.5 -44t108.5 44t68.5 104.5t36 159.5t15.5 171t3 174t-3 174t-15.5 171.5t-36 159.5 t-68.5 104t-108 44q-53 2 -94 -24.5t-65 -81.5t-40 -112.5t-22.5 -142.5t-8.5 -146.5t-2 -145.5zM506 1790q0 39 27.5 66.5t66.5 27.5t66.5 -27.5t27.5 -66.5t-27.5 -66.5t-66.5 -27.5t-66.5 27.5t-27.5 66.5z" />
<glyph unicode="&#xd7;" horiz-adv-x="909" d="M43 186l338 338l-338 338l76 74l336 -338l338 338l75 -72l-340 -340l340 -340l-75 -73l-338 340l-336 -336z" />
<glyph unicode="&#xd8;" horiz-adv-x="913" d="M49 25l101 206q-72 213 -72 553q0 225 27.5 382t81 242t118 121t148.5 36q170 0 256 -138l65 138l88 -45l-96 -205q70 -209 70 -543q0 -793 -373 -792q-168 0 -256 139l-66 -139zM225 772q0 -141 19 -354h4l385 870q-61 137 -176 137q-43 0 -71 -9t-61.5 -46t-53 -104.5 t-33 -192.5t-13.5 -301zM287 264q51 -145 170 -145q121 0 176 146.5t55 506.5q0 178 -16 350h-8z" />
<glyph unicode="&#xd9;" horiz-adv-x="880" d="M117 489v1055h143v-1046q0 -213 32 -296t148 -83q115 0 148 83t33 296v1046h143v-1055q0 -100 -4 -164.5t-22.5 -136t-52.5 -112.5t-95.5 -68.5t-149.5 -27.5q-90 0 -152.5 28.5t-95 69.5t-50 114.5t-21.5 135t-4 161.5zM186 1870l109 98l223 -276l-66 -62z" />
<glyph unicode="&#xda;" horiz-adv-x="880" d="M117 489v1055h143v-1046q0 -213 32 -296t148 -83q115 0 148 83t33 296v1046h143v-1055q0 -100 -4 -164.5t-22.5 -136t-52.5 -112.5t-95.5 -68.5t-149.5 -27.5q-90 0 -152.5 28.5t-95 69.5t-50 114.5t-21.5 135t-4 161.5zM362 1692l224 276l108 -98l-266 -240z" />
<glyph unicode="&#xdb;" horiz-adv-x="880" d="M117 489v1055h143v-1046q0 -213 32 -296t148 -83q115 0 148 83t33 296v1046h143v-1055q0 -100 -4 -164.5t-22.5 -136t-52.5 -112.5t-95.5 -68.5t-149.5 -27.5q-90 0 -152.5 28.5t-95 69.5t-50 114.5t-21.5 135t-4 161.5zM185 1704l252 250l260 -250l-76 -74l-184 176 l-183 -176z" />
<glyph unicode="&#xdc;" horiz-adv-x="880" d="M117 489v1055h143v-1046q0 -213 32 -296t148 -83q115 0 148 83t33 296v1046h143v-1055q0 -100 -4 -164.5t-22.5 -136t-52.5 -112.5t-95.5 -68.5t-149.5 -27.5q-90 0 -152.5 28.5t-95 69.5t-50 114.5t-21.5 135t-4 161.5zM203 1790q0 39 27.5 66.5t66.5 27.5t67 -27.5 t28 -66.5t-28 -66.5t-67 -27.5t-66.5 27.5t-27.5 66.5zM490 1790q0 39 27.5 66.5t66.5 27.5t66.5 -27.5t27.5 -66.5t-27.5 -66.5t-66.5 -27.5t-66.5 27.5t-27.5 66.5z" />
<glyph unicode="&#xdd;" horiz-adv-x="802" d="M39 1544h154l153 -520q8 -27 27.5 -97.5t32.5 -109.5h8q39 193 45 215l151 512h154l-283 -868v-676h-143v676zM323 1692l224 276l108 -98l-266 -240z" />
<glyph unicode="&#xde;" horiz-adv-x="743" d="M123 0v1544h143v-327q80 0 131.5 -5.5t114.5 -27t100 -63.5t62.5 -118.5t25.5 -187.5q-8 -231 -93 -317t-304 -86h-37v-412h-143zM266 543h56q143 0 185 56t46 216q0 160 -53.5 215t-204.5 55h-29v-542z" />
<glyph unicode="&#xdf;" horiz-adv-x="753" d="M2 926v125h111v174q0 76 3 125t18.5 112.5t43 101.5t80.5 64.5t127 26.5q152 0 220.5 -96.5t68.5 -253.5q0 -262 -152 -318q41 -14 73 -45t49.5 -79t28.5 -86t14 -101.5t4 -91t1 -84.5q0 -84 -4 -144.5t-23.5 -132t-51 -117t-93 -76t-145.5 -30.5h-29v125h16 q72 0 108 22.5t60.5 113.5t24.5 271q0 240 -40 315t-144 79h-25v125h14q102 0 139.5 49t37.5 170q0 260 -154 260q-86 0 -111.5 -73t-25.5 -216v-1241h-133v926h-111z" />
<glyph unicode="&#xe0;" horiz-adv-x="714" d="M61 537q0 74 2.5 123t9.5 118.5t24.5 113.5t45 88t73.5 65.5t108 21.5q98 0 161 -88h4v72h134v-1051h-134v82h-4q-63 -98 -174 -98q-90 0 -141 42t-80 163.5t-29 347.5zM145 1438l109 98l223 -276l-66 -62zM199 547q0 -125 8 -213t20.5 -135t35 -72t39.5 -30t46 -5 q94 0 124 96.5t30 354.5q0 96 -5 162.5t-19.5 129t-45.5 93t-78 30.5q-53 0 -85.5 -35.5t-47 -105t-18.5 -128t-4 -142.5z" />
<glyph unicode="&#xe1;" horiz-adv-x="714" d="M61 537q0 74 2.5 123t9.5 118.5t24.5 113.5t45 88t73.5 65.5t108 21.5q98 0 161 -88h4v72h134v-1051h-134v82h-4q-63 -98 -174 -98q-90 0 -141 42t-80 163.5t-29 347.5zM199 547q0 -125 8 -213t20.5 -135t35 -72t39.5 -30t46 -5q94 0 124 96.5t30 354.5q0 96 -5 162.5 t-19.5 129t-45.5 93t-78 30.5q-53 0 -85.5 -35.5t-47 -105t-18.5 -128t-4 -142.5zM260 1260l224 276l108 -98l-266 -240z" />
<glyph unicode="&#xe2;" horiz-adv-x="714" d="M61 537q0 74 2.5 123t9.5 118.5t24.5 113.5t45 88t73.5 65.5t108 21.5q98 0 161 -88h4v72h134v-1051h-134v82h-4q-63 -98 -174 -98q-90 0 -141 42t-80 163.5t-29 347.5zM103 1272l252 250l260 -250l-76 -74l-184 176l-183 -176zM199 547q0 -125 8 -213t20.5 -135t35 -72 t39.5 -30t46 -5q94 0 124 96.5t30 354.5q0 96 -5 162.5t-19.5 129t-45.5 93t-78 30.5q-53 0 -85.5 -35.5t-47 -105t-18.5 -128t-4 -142.5z" />
<glyph unicode="&#xe3;" horiz-adv-x="714" d="M61 537q0 74 2.5 123t9.5 118.5t24.5 113.5t45 88t73.5 65.5t108 21.5q98 0 161 -88h4v72h134v-1051h-134v82h-4q-63 -98 -174 -98q-90 0 -141 42t-80 163.5t-29 347.5zM92 1274q4 66 49.5 116t116.5 50q35 0 107 -37t90 -37q25 0 39 20.5t12 43.5h121q-4 -57 -46 -111.5 t-112 -54.5q-39 0 -116 39q-66 39 -93 38q-49 1 -49 -67h-119zM199 547q0 -125 8 -213t20.5 -135t35 -72t39.5 -30t46 -5q94 0 124 96.5t30 354.5q0 96 -5 162.5t-19.5 129t-45.5 93t-78 30.5q-53 0 -85.5 -35.5t-47 -105t-18.5 -128t-4 -142.5z" />
<glyph unicode="&#xe4;" horiz-adv-x="714" d="M61 537q0 74 2.5 123t9.5 118.5t24.5 113.5t45 88t73.5 65.5t108 21.5q98 0 161 -88h4v72h134v-1051h-134v82h-4q-63 -98 -174 -98q-90 0 -141 42t-80 163.5t-29 347.5zM121 1358q0 39 27.5 66.5t66.5 27.5t67 -27.5t28 -66.5t-28 -66.5t-67 -27.5t-66.5 27.5t-27.5 66.5 zM199 547q0 -125 8 -213t20.5 -135t35 -72t39.5 -30t46 -5q94 0 124 96.5t30 354.5q0 96 -5 162.5t-19.5 129t-45.5 93t-78 30.5q-53 0 -85.5 -35.5t-47 -105t-18.5 -128t-4 -142.5zM408 1358q0 39 27.5 66.5t66.5 27.5t66.5 -27.5t27.5 -66.5t-27.5 -66.5t-66.5 -27.5 t-66.5 27.5t-27.5 66.5z" />
<glyph unicode="&#xe5;" horiz-adv-x="714" d="M61 537q0 74 2.5 123t9.5 118.5t24.5 113.5t45 88t73.5 65.5t108 21.5q98 0 161 -88h4v72h134v-1051h-134v82h-4q-63 -98 -174 -98q-90 0 -141 42t-80 163.5t-29 347.5zM174 1390.5q0 75.5 54.5 130t132.5 54.5q76 0 130 -54.5t54 -129.5q0 -78 -54 -132.5t-130 -54.5 t-131.5 55.5t-55.5 131zM199 547q0 -125 8 -213t20.5 -135t35 -72t39.5 -30t46 -5q94 0 124 96.5t30 354.5q0 96 -5 162.5t-19.5 129t-45.5 93t-78 30.5q-53 0 -85.5 -35.5t-47 -105t-18.5 -128t-4 -142.5zM267 1391q0 -39 27.5 -67t66.5 -28t65.5 28t26.5 67t-26.5 65.5 t-65.5 26.5t-66.5 -26.5t-27.5 -65.5z" />
<glyph unicode="&#xe6;" horiz-adv-x="1159" d="M61 356q0 143 64.5 243.5t200.5 100.5q131 0 192 -86h4v27q0 135 -45 218t-170 83q-72 0 -182 -82v146q84 61 186 61q203 0 271 -197h4q27 88 87 142.5t140 54.5q86 0 146.5 -51t88 -135t39 -161t11.5 -159v-63h-451v-31q0 -51 6 -102.5t21.5 -115t53.5 -102t91 -38.5 q115 0 131 217l2 30h138q-2 -90 -24 -168.5t-83 -141t-152 -62.5q-104 0 -159.5 49t-85.5 141h-4q-29 -88 -98.5 -139t-155.5 -51q-139 0 -203 111.5t-64 260.5zM193 350q0 -98 34.5 -169.5t120.5 -71.5q90 0 133 67.5t43 159.5q0 102 -39 179t-135 77q-158 0 -157 -242z M649 610h314v19q0 313 -150 313q-47 0 -82 -37t-51 -94t-23.5 -107.5t-7.5 -93.5z" />
<glyph unicode="&#xe7;" horiz-adv-x="569" d="M61 504q0 70 6.5 136.5t26 147t51 140t90 99.5t134.5 40q79 0 145 -41v-154q-66 70 -127 70q-59 0 -101 -46t-58.5 -121t-22.5 -133t-6 -120q0 -51 7 -110.5t23.5 -133t55.5 -121.5t94 -48q70 0 131 94h4v-166q-63 -53 -152 -53q-86 0 -148 54t-93 140t-45.5 167 t-14.5 159zM135 -406l170 322l109 -59l-195 -310z" />
<glyph unicode="&#xe8;" horiz-adv-x="702" d="M61 522q0 86 11.5 168t40 173t91 147.5t152.5 56.5q86 0 146.5 -51t88 -135t39 -161t11.5 -159v-63h-442v-31q0 -51 6 -102.5t21.5 -114t50 -102t85.5 -39.5q41 0 70 25.5t41 67.5t17.5 78.5t5.5 75.5h137q-2 -90 -23.5 -168.5t-83 -141t-151.5 -62.5q-313 0 -314 538z M139 1438l109 98l223 -276l-66 -62zM201 610h305l-2 19q-2 43 -3 59.5t-6.5 64.5t-14.5 72.5t-24.5 56t-41 46t-58.5 14.5q-45 0 -77.5 -38t-48 -94t-22.5 -106.5t-7 -93.5z" />
<glyph unicode="&#xe9;" horiz-adv-x="702" d="M61 522q0 86 11.5 168t40 173t91 147.5t152.5 56.5q86 0 146.5 -51t88 -135t39 -161t11.5 -159v-63h-442v-31q0 -51 6 -102.5t21.5 -114t50 -102t85.5 -39.5q41 0 70 25.5t41 67.5t17.5 78.5t5.5 75.5h137q-2 -90 -23.5 -168.5t-83 -141t-151.5 -62.5q-313 0 -314 538z M201 610h305l-2 19q-2 43 -3 59.5t-6.5 64.5t-14.5 72.5t-24.5 56t-41 46t-58.5 14.5q-45 0 -77.5 -38t-48 -94t-22.5 -106.5t-7 -93.5zM253 1260l224 276l108 -98l-266 -240z" />
<glyph unicode="&#xea;" horiz-adv-x="702" d="M61 522q0 86 11.5 168t40 173t91 147.5t152.5 56.5q86 0 146.5 -51t88 -135t39 -161t11.5 -159v-63h-442v-31q0 -51 6 -102.5t21.5 -114t50 -102t85.5 -39.5q41 0 70 25.5t41 67.5t17.5 78.5t5.5 75.5h137q-2 -90 -23.5 -168.5t-83 -141t-151.5 -62.5q-313 0 -314 538z M97 1272l252 250l260 -250l-76 -74l-184 176l-183 -176zM201 610h305l-2 19q-2 43 -3 59.5t-6.5 64.5t-14.5 72.5t-24.5 56t-41 46t-58.5 14.5q-45 0 -77.5 -38t-48 -94t-22.5 -106.5t-7 -93.5z" />
<glyph unicode="&#xeb;" horiz-adv-x="702" d="M61 522q0 86 11.5 168t40 173t91 147.5t152.5 56.5q86 0 146.5 -51t88 -135t39 -161t11.5 -159v-63h-442v-31q0 -51 6 -102.5t21.5 -114t50 -102t85.5 -39.5q41 0 70 25.5t41 67.5t17.5 78.5t5.5 75.5h137q-2 -90 -23.5 -168.5t-83 -141t-151.5 -62.5q-313 0 -314 538z M115 1358q0 39 27.5 66.5t66.5 27.5t67 -27.5t28 -66.5t-28 -66.5t-67 -27.5t-66.5 27.5t-27.5 66.5zM201 610h305l-2 19q-2 43 -3 59.5t-6.5 64.5t-14.5 72.5t-24.5 56t-41 46t-58.5 14.5q-45 0 -77.5 -38t-48 -94t-22.5 -106.5t-7 -93.5zM402 1358q0 39 27.5 66.5 t66.5 27.5t66.5 -27.5t27.5 -66.5t-27.5 -66.5t-66.5 -27.5t-66.5 27.5t-27.5 66.5z" />
<glyph unicode="&#xec;" horiz-adv-x="317" d="M-33 1438l109 98l223 -276l-66 -62zM92 0v1051h133v-1051h-133z" />
<glyph unicode="&#xed;" horiz-adv-x="317" d="M20 1260l224 276l108 -98l-266 -240zM92 0v1051h133v-1051h-133z" />
<glyph unicode="&#xee;" horiz-adv-x="317" d="M-96 1272l252 250l260 -250l-76 -74l-184 176l-183 -176zM92 0v1051h133v-1051h-133z" />
<glyph unicode="&#xef;" horiz-adv-x="317" d="M-78 1358q0 39 27.5 66.5t66.5 27.5t67 -27.5t28 -66.5t-28 -66.5t-67 -27.5t-66.5 27.5t-27.5 66.5zM92 0v1051h133v-1051h-133zM209 1358q0 39 27.5 66.5t66.5 27.5t66.5 -27.5t27.5 -66.5t-27.5 -66.5t-66.5 -27.5t-66.5 27.5t-27.5 66.5z" />
<glyph unicode="&#xf0;" horiz-adv-x="724" d="M61 526q0 80 12.5 160t43 167t94 141.5t154.5 54.5q39 0 88 -23q-59 137 -127 242l-138 -84l-57 82l141 86q-80 119 -202 241l106 43q117 -106 199 -221l141 86l57 -80l-143 -88q240 -369 234 -807q-16 -260 -60 -366q-70 -176 -242 -176q-301 0 -301 542zM199 526 q0 -418 163 -417q88 0 122 103t42 314q0 92 -4 150.5t-18.5 130.5t-50 107.5t-91.5 35.5q-164 0 -163 -424z" />
<glyph unicode="&#xf1;" horiz-adv-x="727" d="M92 0v1051h133v-84q86 100 207 100q66 0 110 -27.5t62.5 -79t24.5 -97.5t6 -111v-752h-133v737q0 113 -21.5 167t-97.5 54q-53 0 -88 -25.5t-48.5 -73.5t-17.5 -85t-4 -92v-682h-133zM98 1274q4 66 49.5 116t116.5 50q35 0 107 -37t90 -37q25 0 39 20.5t12 43.5h121 q-4 -57 -46 -111.5t-112 -54.5q-39 0 -116 39q-66 39 -93 38q-49 1 -49 -67h-119z" />
<glyph unicode="&#xf2;" horiz-adv-x="727" d="M61 526q0 541 301.5 541t301.5 -541q0 -543 -301.5 -542.5t-301.5 542.5zM131 1438l109 98l223 -276l-66 -62zM199 526q0 -418 163.5 -417.5t163.5 417.5q0 416 -163.5 416t-163.5 -416z" />
<glyph unicode="&#xf3;" horiz-adv-x="727" d="M61 526q0 541 301.5 541t301.5 -541q0 -543 -301.5 -542.5t-301.5 542.5zM199 526q0 -418 163.5 -417.5t163.5 417.5q0 416 -163.5 416t-163.5 -416zM266 1260l224 276l108 -98l-266 -240z" />
<glyph unicode="&#xf4;" horiz-adv-x="727" d="M61 526q0 541 301.5 541t301.5 -541q0 -543 -301.5 -542.5t-301.5 542.5zM109 1272l252 250l260 -250l-76 -74l-184 176l-183 -176zM199 526q0 -418 163.5 -417.5t163.5 417.5q0 416 -163.5 416t-163.5 -416z" />
<glyph unicode="&#xf5;" horiz-adv-x="727" d="M61 526q0 541 301.5 541t301.5 -541q0 -543 -301.5 -542.5t-301.5 542.5zM98 1274q4 66 49.5 116t116.5 50q35 0 107 -37t90 -37q25 0 39 20.5t12 43.5h121q-4 -57 -46 -111.5t-112 -54.5q-39 0 -116 39q-66 39 -93 38q-49 1 -49 -67h-119zM199 526q0 -418 163.5 -417.5 t163.5 417.5q0 416 -163.5 416t-163.5 -416z" />
<glyph unicode="&#xf6;" horiz-adv-x="727" d="M61 526q0 541 301.5 541t301.5 -541q0 -543 -301.5 -542.5t-301.5 542.5zM127 1358q0 39 27.5 66.5t66.5 27.5t67 -27.5t28 -66.5t-28 -66.5t-67 -27.5t-66.5 27.5t-27.5 66.5zM199 526q0 -418 163.5 -417.5t163.5 417.5q0 416 -163.5 416t-163.5 -416zM414 1358 q0 39 27.5 66.5t66.5 27.5t66.5 -27.5t27.5 -66.5t-27.5 -66.5t-66.5 -27.5t-66.5 27.5t-27.5 66.5z" />
<glyph unicode="&#xf7;" horiz-adv-x="909" d="M43 473v105h825v-105h-825zM352 127q0 43 31 73.5t74 30.5t73.5 -30.5t30.5 -73.5t-30.5 -73.5t-73.5 -30.5t-74 30.5t-31 73.5zM352 924q0 43 31 73.5t74 30.5t73.5 -30.5t30.5 -73.5t-30.5 -74t-73.5 -31t-74 31t-31 74z" />
<glyph unicode="&#xf8;" horiz-adv-x="727" d="M29 35l84 145q-51 145 -52 344q0 543 310 543q121 0 194 -100l60 100l71 -45l-82 -143q49 -133 50 -355q0 -541 -293 -540q-133 0 -213 104l-56 -96zM199 524q0 -33 10 -192h4l270 512q-14 41 -44.5 69.5t-69.5 28.5q-170 0 -170 -418zM240 211q41 -102 129 -102 q158 0 157 415q0 29 -2 60.5t-5 70.5t-5 60h-4z" />
<glyph unicode="&#xf9;" horiz-adv-x="716" d="M84 279v772h133v-660q0 -66 4 -106.5t16.5 -85.5t42 -67.5t76.5 -22.5q49 0 79 21.5t43.5 68.5t17.5 86t4 106v660h133v-772q0 -137 -68.5 -216t-206.5 -79q-135 0 -204.5 78.5t-69.5 216.5zM125 1438l109 98l223 -276l-66 -62z" />
<glyph unicode="&#xfa;" horiz-adv-x="716" d="M84 279v772h133v-660q0 -66 4 -106.5t16.5 -85.5t42 -67.5t76.5 -22.5q49 0 79 21.5t43.5 68.5t17.5 86t4 106v660h133v-772q0 -137 -68.5 -216t-206.5 -79q-135 0 -204.5 78.5t-69.5 216.5zM260 1260l224 276l108 -98l-266 -240z" />
<glyph unicode="&#xfb;" horiz-adv-x="716" d="M84 279v772h133v-660q0 -66 4 -106.5t16.5 -85.5t42 -67.5t76.5 -22.5q49 0 79 21.5t43.5 68.5t17.5 86t4 106v660h133v-772q0 -137 -68.5 -216t-206.5 -79q-135 0 -204.5 78.5t-69.5 216.5zM103 1272l252 250l260 -250l-76 -74l-184 176l-183 -176z" />
<glyph unicode="&#xfc;" horiz-adv-x="716" d="M84 279v772h133v-660q0 -66 4 -106.5t16.5 -85.5t42 -67.5t76.5 -22.5q49 0 79 21.5t43.5 68.5t17.5 86t4 106v660h133v-772q0 -137 -68.5 -216t-206.5 -79q-135 0 -204.5 78.5t-69.5 216.5zM121 1358q0 39 27.5 66.5t66.5 27.5t67 -27.5t28 -66.5t-28 -66.5t-67 -27.5 t-66.5 27.5t-27.5 66.5zM408 1358q0 39 27.5 66.5t66.5 27.5t66.5 -27.5t27.5 -66.5t-27.5 -66.5t-66.5 -27.5t-66.5 27.5t-27.5 66.5z" />
<glyph unicode="&#xfd;" horiz-adv-x="679" d="M16 1051h136l176 -848h6q6 31 17 85t20.5 99t17.5 86l135 578h140l-363 -1452h-139l104 430zM262 1260l224 276l108 -98l-266 -240z" />
<glyph unicode="&#xfe;" horiz-adv-x="714" d="M92 -401v1876h133v-496h4q63 88 164 88q57 0 102.5 -20.5t73 -60.5t45 -85t25.5 -111.5t11 -122t3 -130.5q0 -137 -8 -227.5t-33.5 -170.5t-77 -117.5t-131.5 -37.5q-111 0 -174 98h-4v-483h-133zM213 555q0 -104 4 -170t17.5 -141.5t47.5 -113.5t85 -38q66 0 98.5 54.5 t41.5 143.5t9 257q0 80 -3 134t-16.5 127t-48 111.5t-88.5 38.5q-49 0 -81.5 -34.5t-45 -103t-16.5 -125t-4 -140.5z" />
<glyph unicode="&#xff;" horiz-adv-x="679" d="M16 1051h136l176 -848h6q6 31 17 85t20.5 99t17.5 86l135 578h140l-363 -1452h-139l104 430zM102 1358q0 39 27.5 66.5t66.5 27.5t67 -27.5t28 -66.5t-28 -66.5t-67 -27.5t-66.5 27.5t-27.5 66.5zM389 1358q0 39 27.5 66.5t66.5 27.5t66.5 -27.5t27.5 -66.5t-27.5 -66.5 t-66.5 -27.5t-66.5 27.5t-27.5 66.5z" />
<glyph unicode="&#x152;" horiz-adv-x="1255" d="M78 788q0 776 366 777q72 0 134.5 -44t95.5 -114h4v137h477v-131h-342v-545h332v-131h-332v-606h342v-131h-477v160h-4q-29 -80 -92.5 -130t-145.5 -50q-358 0 -358 808zM225 733q0 -297 49.5 -455.5t174.5 -158.5q137 0 181 132t44 482q0 156 -4 253t-17.5 190.5 t-38 142.5t-65.5 77.5t-103 28.5q-221 0 -221 -692z" />
<glyph unicode="&#x153;" horiz-adv-x="1146" d="M61 526q0 84 10.5 164t39 172t90 148.5t151.5 56.5q82 0 143.5 -67.5t73.5 -153.5h4q16 88 81 154.5t147 66.5q86 0 146.5 -51t88 -135t38.5 -161t11 -159v-63h-448v-31q0 -51 6 -102.5t21.5 -115t52.5 -102t90 -38.5q115 0 131 217l2 30h137q-2 -90 -23.5 -168.5 t-83 -141t-151.5 -62.5t-155.5 59t-90.5 162h-4q-18 -92 -76.5 -156.5t-146.5 -64.5q-141 0 -213 145t-72 397zM199 528q0 -49 4 -101t17 -132t49 -131t87 -55q49 0 84 48t49.5 124.5t19.5 136t5 113t-4 107.5t-18.5 131t-49.5 125t-86 48q-41 2 -71.5 -28.5t-47 -75.5 t-25.5 -109.5t-11 -109t-2 -91.5zM639 610h311l-2 19q-2 43 -3 59.5t-6 64.5t-14.5 72.5t-24.5 56t-40.5 46t-58.5 14.5q-61 0 -100 -66.5t-50.5 -135.5t-11.5 -130z" />
<glyph unicode="&#x178;" horiz-adv-x="802" d="M39 1544h154l153 -520q8 -27 27.5 -97.5t32.5 -109.5h8q39 193 45 215l151 512h154l-283 -868v-676h-143v676zM176 1790q0 39 27.5 66.5t66.5 27.5t67 -27.5t28 -66.5t-28 -66.5t-67 -27.5t-66.5 27.5t-27.5 66.5zM463 1790q0 39 27.5 66.5t66.5 27.5t66.5 -27.5 t27.5 -66.5t-27.5 -66.5t-66.5 -27.5t-66.5 27.5t-27.5 66.5z" />
<glyph unicode="&#x2c6;" horiz-adv-x="573" d="M31 1272l252 250l260 -250l-76 -74l-184 176l-183 -176z" />
<glyph unicode="&#x2dc;" horiz-adv-x="573" d="M20 1274q4 66 49.5 116t116.5 50q35 0 107 -37t90 -37q25 0 39 20.5t12 43.5h121q-4 -57 -46 -111.5t-112 -54.5q-39 0 -116 39q-66 39 -93 38q-49 1 -49 -67h-119z" />
<glyph unicode="&#x2000;" horiz-adv-x="984" />
<glyph unicode="&#x2001;" horiz-adv-x="1968" />
<glyph unicode="&#x2002;" horiz-adv-x="984" />
<glyph unicode="&#x2003;" horiz-adv-x="1968" />
<glyph unicode="&#x2004;" horiz-adv-x="656" />
<glyph unicode="&#x2005;" horiz-adv-x="492" />
<glyph unicode="&#x2006;" horiz-adv-x="328" />
<glyph unicode="&#x2007;" horiz-adv-x="328" />
<glyph unicode="&#x2008;" horiz-adv-x="246" />
<glyph unicode="&#x2009;" horiz-adv-x="393" />
<glyph unicode="&#x200a;" horiz-adv-x="109" />
<glyph unicode="&#x2010;" horiz-adv-x="319" d="M0 573v162h319v-162h-319z" />
<glyph unicode="&#x2011;" horiz-adv-x="319" d="M0 573v162h319v-162h-319z" />
<glyph unicode="&#x2012;" horiz-adv-x="319" d="M0 573v162h319v-162h-319z" />
<glyph unicode="&#x2013;" horiz-adv-x="1024" d="M0 573v162h1024v-162h-1024z" />
<glyph unicode="&#x2014;" horiz-adv-x="2048" d="M266 573v162h1516v-162h-1516z" />
<glyph unicode="&#x2018;" horiz-adv-x="458" d="M78 1108l205 457l98 -47l-160 -478z" />
<glyph unicode="&#x2019;" horiz-adv-x="458" d="M78 1087l160 478l143 -68l-205 -457z" />
<glyph unicode="&#x201a;" horiz-adv-x="458" d="M16 -283l160 478l143 -68l-204 -457z" />
<glyph unicode="&#x201c;" horiz-adv-x="733" d="M78 1108l205 457l98 -47l-160 -478zM350 1108l205 457l100 -47l-159 -478z" />
<glyph unicode="&#x201d;" horiz-adv-x="733" d="M78 1087l160 478l143 -68l-205 -457zM352 1087l160 478l143 -68l-204 -457z" />
<glyph unicode="&#x201e;" horiz-adv-x="733" d="M78 -283l160 478l143 -68l-205 -457zM352 -283l160 478l143 -68l-204 -457z" />
<glyph unicode="&#x2022;" horiz-adv-x="849" d="M41 774q0 158 113.5 271.5t273.5 113.5q156 0 269.5 -113.5t113.5 -271.5q0 -156 -113.5 -270.5t-269.5 -114.5q-160 0 -273.5 114.5t-113.5 270.5z" />
<glyph unicode="&#x2026;" horiz-adv-x="2048" d="M236 88q0 43 30.5 74t73.5 31t73.5 -31t30.5 -74t-30.5 -73.5t-73.5 -30.5t-73.5 30.5t-30.5 73.5zM920 88q0 43 30.5 74t73.5 31t73.5 -31t30.5 -74t-30.5 -73.5t-73.5 -30.5t-73.5 30.5t-30.5 73.5zM1604 88q0 43 30.5 74t73.5 31t73.5 -31t30.5 -74t-30.5 -73.5 t-73.5 -30.5t-73.5 30.5t-30.5 73.5z" />
<glyph unicode="&#x202f;" horiz-adv-x="393" />
<glyph unicode="&#x2039;" horiz-adv-x="509" d="M92 647l252 449l88 -52l-219 -397l219 -387l-88 -49z" />
<glyph unicode="&#x203a;" horiz-adv-x="509" d="M78 262l219 397l-219 388l88 49l252 -437l-252 -448z" />
<glyph unicode="&#x205f;" horiz-adv-x="492" />
<glyph unicode="&#x2122;" horiz-adv-x="1478" d="M117 1440v104h481v-104h-188v-758h-105v758h-188zM690 682v862h180l154 -608h4l160 608h176v-862h-104v754h-5l-192 -754h-74l-190 754h-4v-754h-105z" />
<glyph unicode="&#x25fc;" horiz-adv-x="1054" d="M0 0v1055h1055v-1055h-1055z" />
<glyph unicode="&#xfb01;" horiz-adv-x="743" d="M0 928v123h113v311q0 145 45 219t151 74q66 0 117 -23v-145q-57 45 -96 45q-51 0 -67.5 -41t-16.5 -127v-313h174v-123h-174v-928h-133v928h-113zM485 1362q0 41 30 69.5t71 28.5t69.5 -29.5t28.5 -68.5q0 -41 -28.5 -70.5t-69.5 -29.5t-71 29.5t-30 70.5zM518 0v1051 h133v-1051h-133z" />
<glyph unicode="&#xfb02;" horiz-adv-x="743" d="M0 928v123h113v309q0 295 196 295q66 0 117 -23v-145q-57 45 -96 45q-53 0 -68.5 -39t-15.5 -131v-311h174v-123h-174v-928h-133v928h-113zM518 0v1638h133v-1638h-133z" />
</font>
</defs></svg> 